{
  "links" : {
    "self" : {
      "href" : "/orders"
    },
    "next" : {
      "href" : "/orders?page=2"
    }
  },
  "result" : [ {
    "id" : 7325,
    "total" : 78.22,
    "customerId" : 9001
  }, {
    "id" : 7236,
    "total" : 301.97,
    "customerId" : 9200
  } ]
}